VertexLitGeneric
{
	"$basetexture" "models/weapons/v_models/csgo/rif_dmr/crosshair_outline"
	$translucent 1
	
	$alpha 0
	$draw_outline 0
	
	$cloakpassenabled 1
	$cloakfactor 0
	
	$ironsight 0
	$ceiling 0.99
	$null 0
	$one 1
	
	Proxies
	{
		ConVar
		{
			convar	"cl_crosshair_drawoutline"
			resultVar	"$draw_outline"
		}
		Clamp
		{
			min "$null"
			max "$one"
			srcVar1 "$draw_outline"
			resultVar "$draw_outline"
		}
		Subtract
		{
			srcVar1 "$one"
			srcVar2 "$draw_outline"
			resultVar "$draw_outline"
		}
		Abs
		{
			srcVar1 "$draw_outline"
			resultVar "$cloakfactor"
		}	
		IronSightAmount
		{
			resultVar	"$ironsight"
			invert		0
		}
		LessOrEqual
		{
		   srcVar1 		        "$ironsight"
		   srcVar2 		        "$ceiling"
		   resultVar 			"$alpha"		
		   greaterVar 	        "$ironsight"
		   LessEqualVar 	    "$null"
		}		
	}
}