UnlitGeneric
{
	$basetexture "models/weapons/v_models/csgo/rif_ma37/hud_compass"
	$color "[4 4 4]"
	$additive 1
	
	$one 1
	$zero 0
	
	Proxies
	{
		CrossHairColor
		{
			resultVar	"$color2"
		}
		ConVar
		{
			convar "cl_righthand"
			resultVar "$alpha"
		}
		Subtract
		{
			srcVar1 $alpha
			srcVar2 $one
			resultVar $alpha
		}
		Abs
		{
			srcVar1 $alpha
			resultVar $alpha
		}
		Clamp
		{
			min "$zero"
			max "$one"
			srcVar1 "$alpha"
			resultVar "$alpha"
		}
	}
}