"VertexLitGeneric"
{
	"$basetexture" "models/weapons/v_models/csgo/rif_covenant_carbine/covenant_carbine_d"
	"$bumpmap" "models/weapons/v_models/csgo/rif_covenant_carbine/covenant_carbine_n"

	"$envmap" "models/weapons/v_models/csgo/rif_covenant_carbine/softsilver.hdr"
	"$envmaptint"	"[0.015 0.015 0.015]"
	"$envmapfresnel" "1"

	"$normalmapalphaenvmapmask" "1"

	"$color2" "[0.65 0.65 0.65]"

	"$halflambert" "1"

	"$phong" "1"
	"$phongboost" "1.25"
	//"$phongexponent" "5.00"
	"$phongexponenttexture" "models/weapons/v_models/csgo/rif_covenant_carbine/phongexp"
	"$phongfresnelranges" "[4 3 7]"
	"$phongalbedotint" "1"
}