"VertexLitGeneric"
{
	"$basetexture" "models/weapons/v_models/csgo/rif_covenant_carbine/covenant_carbine_d"
	"$bumpmap" "models/weapons/v_models/csgo/rif_covenant_carbine/covenant_carbine_n"

	"$envmap" "models/weapons/v_models/csgo/rif_covenant_carbine/softsilver.hdr"
	"$envmaptint"	"[0.015 0.015 0.015]"
	"$envmapfresnel" "1"

	"$normalmapalphaenvmapmask" "1"

	"$halflambert" "1"

	"$phong" "1"
	"$phongboost" "0.9"
	"$phongexponent" "25"
	"$phongfresnelranges" "[0.75 0.9]"
	"$phongwarptexture"  "models/weapons/v_models/csgo/rif_covenant_carbine/vort_iridescence"

	"$detail" "models/weapons/v_models/csgo/rif_covenant_carbine/covenant_carbine_detail"
	"$detailscale" "7"
	"$detailblendfactor" "0.3"
	"$detailblendmode" "0"
	"$detailtexturetransform" "center 0.5 0.5 scale 2 1 rotate 0 translate 0 0"
}