"VertexLitGeneric"
{
	"$basetexture" "models\weapons\v_models\csgo\smg_m7\m7_handle_diffuse"
	"$bumpmap" "models\weapons\v_models\csgo\smg_m7\m7_handle_normal"
	
	"$color2" "[0.9 0.9 0.9]"
	
	"$envmap" "env_cubemap"
	"$envmaptint"	"[0.02 0.02 0.02]"
	"$envmapfresnel" "1"

	$Normalmapalphaenvmapmask 1	

	$phong 1
	$phongexponenttexture "models\weapons\v_models\csgo\smg_m7\gloss"
	$phongboost	10
	$phongalbedotint 1
    $phongExponent 20
	$phongfresnelranges	"[0.6 0.6 1]"
}