UnlitGeneric
{
	"$basetexture" "models/weapons/v_models/csgo/rif_ma37_h3/scanbig"
	"$color2" "[0.25 0.25 0.25]"
	"$additive" "1"

	Proxies
	{
		CrossHairColor
		{
			resultVar	"$color"
		}
		"TextureScroll"
		{
			"textureScrollVar" "$basetexturetransform"
			"textureScrollRate" 0.2
			"textureScrollAngle" 90
		}
	}
}