UnlitGeneric
{
	$basetexture "models/weapons/v_models/csgo/rif_ma37_h3/display"
	
	$color2 "[4 4 4]"
	
	$zero 0
	$one 1
	
	$additive 1
	
	Proxies
	{
		CrossHairColor
		{
			resultVar	"$color"
		}
		ConVar
		{
			convar "cl_righthand"
			resultVar "$alpha"
		}
		Subtract
		{
			srcVar1 $alpha
			srcVar2 $one
			resultVar $alpha
		}
		Abs
		{
			srcVar1 $alpha
			resultVar $alpha
		}
		Clamp
		{
			min "$zero"
			max "$one"
			srcVar1 "$alpha"
			resultVar "$alpha"
		}
	}
}