UnlitGeneric
{
	$basetexture "models/weapons/v_models/csgo/rif_ma37_h3/hud_num_sheet"
	
	$zero 0
	$one 1
	
	$color2 "[1.5 1.5 1.5]"
	
	$additive 1
	
	Proxies
	{
		NobleStrike_AMMO
		{
			resultVar 2
			prefixstring "models\weapons\v_models\csgo\rif_ma37_h3\num_l\"
		}
		CrossHairColor
		{
			resultVar	"$color"
		}
		ConVar
		{
			convar "cl_righthand"
			resultVar "$alpha"
		}
		Subtract
		{
			srcVar1 $alpha
			srcVar2 $one
			resultVar $alpha
		}
		Abs
		{
			srcVar1 $alpha
			resultVar $alpha
		}
		Clamp
		{
			min "$zero"
			max "$one"
			srcVar1 "$alpha"
			resultVar "$alpha"
		}
	}
}