VertexLitGeneric
{
	$color "[0.1 0.2 0.5]"
	$additive 1
	
	$envmap 	"models\props\de_nuke\hr_nuke\web_joist_001\web_joist_001_cubemap"
	$envmaptint "[0.4 0.6 0.9]"
	
	$emissiveBlendEnabled 		"1"
	$emissiveBlendTexture		"models/weapons/energy_sword/blade_energy"
	$emissiveBlendBaseTexture	"models/weapons/energy_sword/blade"
	$emissiveBlendFlowTexture	"models/weapons/energy_sword/blade_energy_flowmap"
	$emissiveBlendTint 			"[1 0.5 1]"
	$emissiveBlendStrength 		"1"
	$emissiveBlendScrollVector 	"[-0.3 0.1]" 
	
	
	"Proxies"
	{
		"Sine"
		{
			"resultVar" "$alpha"
			"sineperiod" 1
			"sinemin" 0.5
			"sinemax" 1.0
		}
		"Sine"
		{
			"resultVar" "$color[0]"
			"sineperiod" 1.3
			"sinemin" 0.1
			"sinemax" 0.3
		}
	}
}