VertexLitGeneric
{
	$basetexture "models\weapons\v_models\csgo\eq_spnkr\rocket_launcher_diffuse"
	$bumpmap "models\weapons\v_models\csgo\eq_spnkr\rocket_launcher_zbump"
	
	"$envmap" "env_cubemap"
	"$envmaptint"	"[0.02 0.02 0.02]"
	"$envmapfresnel" "1"
			
	$detail "models\weapons\v_models\csgo\rif_dmr\detail_metal"
	$detailscale 9
	$detailblendfactor 2
	
	$color2 "[0.9 0.9 0.9]"

	$basealphaenvmapmask 1	

	$phong 1
	$phongexponenttexture "models\weapons\v_models\csgo\rif_dmr\gloss"
	$phongboost	5
	$phongalbedotint 1
    $phongExponent 15
	$phongfresnelranges	"[1 1 1]"
}