"VertexLitGeneric"
{
	"$basetexture" "models/weapons/v_models/csgo/pist_m6g_h3/magnum_d"
	"$bumpmap" "models/weapons/v_models/csgo/pist_m6g_h3/magnum_n"
	
	$color2 "[0.9 0.9 0.9]"
	
	"$envmap" "models/weapons/v_models/csgo/rif_covenant_carbine/softsilver.hdr"
	"$envmaptint"	"[0.4 0.4 0.4]"
	
	$detail "models/weapons/v_models/csgo/pist_m6g/detail_metal"
	$detailscale 3.5
	$detailblendfactor 2

	$normalmapalphaenvmapmask 1	

	$phong 1
	$phongexponenttexture "models/weapons/v_models/csgo/pist_m6g/gloss"
	$phongboost	15
	$phongalbedotint 1
    $phongExponent 40
	$phongfresnelranges	"[1 1 1]"
}