"VertexLitGeneric"
{
	"$basetexture" "models/weapons/v_models/csgo/rif_covenant_carbine/covenant_carbine_d"
	"$bumpmap" "models/weapons/v_models/csgo/rif_covenant_carbine/covenant_carbine_n"

	"$envmap" "models/weapons/v_models/csgo/rif_covenant_carbine/softsilver.hdr"
	"$envmaptint"	"[0.015 0.015 0.015]"
	"$envmapfresnel" "1"

	"$normalmapalphaenvmapmask" "1"

	"$color2" "[0.5 0.5 0.5]"

	"$halflambert" "1"

	"$phong" "1"
	"$phongboost" "1.25"
	"$phongexponent" "8"
	"$phongexponenttexture" "models/weapons/v_models/csgo/rif_covenant_carbine/phongexp"
	"$phongfresnelranges" "[4 3 7]"
	"$phongalbedotint" "1"
	
	GPU<2
	{
		$forcephong 1
		$phongboost 0.5
		$phongexponent 28
	}
	
	
	$ironsight 0
	$mult 6
	$multres 0
	Proxies
	{
		IronSightAmount
		{
			resultVar	"$ironsight"
			invert		1
		}
        Multiply
        {
            srcVar1		$ironsight
            srcVar2		$mult
            resultVar	$multres
        }
        Clamp
        {
            srcVar1                      $multres
            min                         "0"
            max                         "1"
            resultVar                    $alpha
        }
	}
}