UnlitGeneric
{
	$basetexture "models/weapons/v_models/csgo/rif_covenant_carbine/screen"

	$model 1
	$translucent 1
	//$vertexalpha 1
	//$selfillum 1

	//$alphatest 1
	//$alphatestreference 1

	//$color "[1 1 1]"
	$color2 "[8 13 17]"

	$ironsight 0
	$ceiling 0.99
	$null 0
	$one 1

	$alpha 1
	Proxies
	{
	//	IronSightAmount
	//	{
	//		resultVar	"$alpha"
	//		invert		0
	//	}
		IronSightAmount
		{
			resultVar	"$ironsight"
			invert		1
		}
		LessOrEqual
		{
		   srcVar1 		        "$ironsight"
		   srcVar2 		        "$ceiling"
		   resultVar 			"$alpha"		
		   greaterVar 	        "$ironsight"
		   LessEqualVar 	    "$null"
		}
	}
}